<svg width="67" height="67" viewBox="0 0 67 67" fill="none" xmlns="http://www.w3.org/2000/svg">
<rect x="0.5" y="0.5" width="66" height="66" rx="33" stroke="#35364A"/>
<rect x="25.4141" y="24" width="24" height="2" rx="1" transform="rotate(45 25.4141 24)" fill="white"/>
<rect x="24.4141" y="41" width="24" height="2" rx="1" transform="rotate(-45 24.4141 41)" fill="white"/>
</svg>
